<?xml version="1.0" encoding="UTF-8"?>
<glyph name="periodcentered" format="1">
  <advance width="240"/>
  <unicode hex="00B7"/>
  <outline>
    <contour>
      <point x="74" y="319" type="curve" smooth="yes"/>
      <point x="74" y="343"/>
      <point x="96" y="365"/>
      <point x="120" y="365" type="curve" smooth="yes"/>
      <point x="144" y="365"/>
      <point x="166" y="343"/>
      <point x="166" y="319" type="curve" smooth="yes"/>
      <point x="166" y="295"/>
      <point x="144" y="273"/>
      <point x="120" y="273" type="curve" smooth="yes"/>
      <point x="96" y="273"/>
      <point x="74" y="295"/>
    </contour>
  </outline>
  <lib>
    <dict>
      <key>com.fontlab.hintData</key>
      <dict>
        <key>hhints</key>
        <array>
          <dict>
            <key>position</key>
            <integer>273</integer>
            <key>width</key>
            <integer>92</integer>
          </dict>
        </array>
        <key>vhints</key>
        <array>
          <dict>
            <key>position</key>
            <integer>74</integer>
            <key>width</key>
            <integer>92</integer>
          </dict>
        </array>
      </dict>
    </dict>
  </lib>
</glyph>
