<?xml version="1.0" encoding="UTF-8"?>
<glyph name="t" format="1">
  <advance width="240"/>
  <unicode hex="0074"/>
  <outline>
    <contour>
      <point x="156" y="472" type="line"/>
      <point x="156" y="40" type="line" smooth="yes"/>
      <point x="156" y="10"/>
      <point x="143" y="-6"/>
      <point x="120" y="-6" type="curve" smooth="yes"/>
      <point x="97" y="-6"/>
      <point x="84" y="10"/>
      <point x="84" y="40" type="curve" smooth="yes"/>
      <point x="84" y="472" type="line"/>
      <point x="37" y="472" type="line" smooth="yes"/>
      <point x="13" y="472"/>
      <point x="6" y="490"/>
      <point x="6" y="502" type="curve" smooth="yes"/>
      <point x="6" y="514"/>
      <point x="13" y="532"/>
      <point x="37" y="532" type="curve" smooth="yes"/>
      <point x="84" y="532" type="line"/>
      <point x="84" y="649" type="line" smooth="yes"/>
      <point x="84" y="680"/>
      <point x="97" y="696"/>
      <point x="120" y="696" type="curve" smooth="yes"/>
      <point x="143" y="696"/>
      <point x="156" y="680"/>
      <point x="156" y="649" type="curve" smooth="yes"/>
      <point x="156" y="532" type="line"/>
      <point x="203" y="532" type="line" smooth="yes"/>
      <point x="227" y="532"/>
      <point x="234" y="514"/>
      <point x="234" y="502" type="curve" smooth="yes"/>
      <point x="234" y="490"/>
      <point x="227" y="472"/>
      <point x="203" y="472" type="curve" smooth="yes"/>
    </contour>
  </outline>
  <lib>
    <dict>
      <key>com.fontlab.hintData</key>
      <dict>
        <key>hhints</key>
        <array>
          <dict>
            <key>position</key>
            <integer>-6</integer>
            <key>width</key>
            <integer>21</integer>
          </dict>
          <dict>
            <key>position</key>
            <integer>472</integer>
            <key>width</key>
            <integer>60</integer>
          </dict>
        </array>
        <key>vhints</key>
        <array>
          <dict>
            <key>position</key>
            <integer>84</integer>
            <key>width</key>
            <integer>72</integer>
          </dict>
        </array>
      </dict>
    </dict>
  </lib>
</glyph>
