<?xml version="1.0" encoding="UTF-8"?>
<glyph name="Y" format="1">
  <advance width="482"/>
  <unicode hex="0059"/>
  <outline>
    <contour>
      <point x="241" y="407" type="line"/>
      <point x="415" y="697" type="line" smooth="yes"/>
      <point x="424" y="713"/>
      <point x="435" y="718"/>
      <point x="451" y="718" type="curve" smooth="yes"/>
      <point x="471" y="718"/>
      <point x="481" y="705"/>
      <point x="481" y="690" type="curve" smooth="yes"/>
      <point x="481" y="681"/>
      <point x="477" y="670"/>
      <point x="459" y="640" type="curve" smooth="yes"/>
      <point x="277" y="337" type="line"/>
      <point x="277" y="40" type="line" smooth="yes"/>
      <point x="277" y="10"/>
      <point x="264" y="-6"/>
      <point x="241" y="-6" type="curve" smooth="yes"/>
      <point x="218" y="-6"/>
      <point x="205" y="10"/>
      <point x="205" y="40" type="curve" smooth="yes"/>
      <point x="205" y="337" type="line"/>
      <point x="23" y="640" type="line" smooth="yes"/>
      <point x="5" y="670"/>
      <point x="1" y="681"/>
      <point x="1" y="690" type="curve" smooth="yes"/>
      <point x="1" y="705"/>
      <point x="11" y="718"/>
      <point x="31" y="718" type="curve" smooth="yes"/>
      <point x="47" y="718"/>
      <point x="58" y="713"/>
      <point x="67" y="697" type="curve" smooth="yes"/>
    </contour>
  </outline>
  <lib>
    <dict>
      <key>com.fontlab.hintData</key>
      <dict>
        <key>hhints</key>
        <array>
          <dict>
            <key>position</key>
            <integer>-6</integer>
            <key>width</key>
            <integer>21</integer>
          </dict>
          <dict>
            <key>position</key>
            <integer>698</integer>
            <key>width</key>
            <integer>20</integer>
          </dict>
        </array>
        <key>vhints</key>
        <array>
          <dict>
            <key>position</key>
            <integer>205</integer>
            <key>width</key>
            <integer>72</integer>
          </dict>
        </array>
      </dict>
    </dict>
  </lib>
</glyph>
