<?xml version="1.0" encoding="UTF-8"?>
<glyph name="z" format="1">
  <advance width="444"/>
  <unicode hex="007A"/>
  <outline>
    <contour>
      <point x="141" y="76" type="line"/>
      <point x="138" y="78" type="line"/>
      <point x="395" y="456" type="line" smooth="yes"/>
      <point x="413" y="482"/>
      <point x="413" y="501" type="qcurve" smooth="yes"/>
      <point x="413" y="514"/>
      <point x="393" y="532"/>
      <point x="370" y="532" type="qcurve" smooth="yes"/>
      <point x="74" y="532" type="line" smooth="yes"/>
      <point x="30" y="532"/>
      <point x="30" y="494" type="qcurve" smooth="yes"/>
      <point x="30" y="456"/>
      <point x="74" y="456" type="qcurve" smooth="yes"/>
      <point x="292" y="456" type="line"/>
      <point x="38" y="76" type="line" smooth="yes"/>
      <point x="20" y="50"/>
      <point x="20" y="31" type="qcurve" smooth="yes"/>
      <point x="20" y="18"/>
      <point x="40" y="0"/>
      <point x="63" y="0" type="qcurve" smooth="yes"/>
      <point x="380" y="0" type="line" smooth="yes"/>
      <point x="424" y="0"/>
      <point x="424" y="38" type="qcurve" smooth="yes"/>
      <point x="424" y="76"/>
      <point x="380" y="76" type="qcurve" smooth="yes"/>
    </contour>
  </outline>
</glyph>
