<?xml version="1.0" encoding="utf-8"?>
<!-- Generator: Adobe Illustrator 23.0.3, SVG Export Plug-In . SVG Version: 6.00 Build 0)  -->
<svg version="1.1" id="Layer_1" xmlns="http://www.w3.org/2000/svg" xmlns:xlink="http://www.w3.org/1999/xlink" x="0px" y="0px"
	 viewBox="0 0 15.4 15.2" style="enable-background:new 0 0 15.4 15.2;" xml:space="preserve">
<style type="text/css">
	.st0{fill:#1D1D1B;stroke:#000000;stroke-miterlimit:10;}
</style>
<g>
	<path class="st0" d="M14.5,4.2L14.5,4.2C14.5,4.2,14.5,4.2,14.5,4.2c0,0,0.1-0.1,0.1-0.2c0,0,0,0,0,0c0,0,0-0.1,0-0.1c0,0,0,0,0,0
		c0,0,0,0,0,0c0-0.1,0-0.1,0-0.1c0,0,0,0,0,0c0-0.1,0-0.1-0.1-0.1c0,0,0,0,0,0l-2.2-2.6c-0.2-0.2-0.5-0.2-0.6,0
		c-0.2,0.2-0.2,0.5,0,0.7L12.9,3c-1.8-0.2-3.5,0.1-3.6,0.2c-5.4,1-9.2,5.9-8.5,11c0,0.3,0.2,0.4,0.4,0.4c0,0,0,0,0.1,0
		c0.2,0,0.4-0.3,0.4-0.6C1.1,9.5,4.5,5,9.4,4.1c0,0,1.8-0.4,3.5-0.1l-1.9,1.1c-0.2,0.1-0.3,0.4-0.2,0.7C11,6.1,11.3,6.2,11.5,6
		l2.9-1.7C14.5,4.3,14.5,4.2,14.5,4.2z"/>
</g>
</svg>
